BMIN5030 Final Project: Diabetes Prediction
…
    Null deviance: 73501  on 53019  degrees of freedom
Residual deviance: 53894  on 52998  degrees of freedom
AIC: 53938

Number of Fisher Scoring iterations: 5

coefficients <- tidy(logistic_model, conf.int = TRUE)
coefficients <- coefficients %>%
  mutate(Odds_Ratio = exp(estimate), 
         Lower_CI = exp(conf.low), 
         Upper_CI = exp(conf.high))

print(coefficients)

# A tibble: 22 × 10
   term     estimate std.error statistic   p.value conf.low conf.high Odds_Ratio
   <chr>       <dbl>     <dbl>     <dbl>     <dbl>    <dbl>     <dbl>      <dbl>
 1 (Interc…  -6.80     0.143      -47.7  0          -7.08    -6.52       0.00111
 2 HighBP     0.748    0.0229      32.7  5.01e-234   0.703    0.793      2.11   
 3 HighChol   0.584    0.0219      26.7  7.32e-157   0.541    0.627      1.79   
 4 CholChe…   1.28     0.0927      13.8  1.57e- 43   1.10     1.47       3.61   
 5 BMI        0.0790   0.00184     42.9  0           0.0754   0.0826     1.08   
 6 Smoker     0.0237   0.0219       1.08 2.79e-  1  -0.0192   0.0666     1.02   
 7 Stroke     0.111    0.0470       2.37 1.78e-  2   0.0196   0.204      1.12   
 8 HeartDi…   0.213    0.0328       6.49 8.51e- 11   0.149    0.277      1.24   
 9 PhysAct…  -0.0473   0.0248      -1.91 5.61e-  2  -0.0959   0.00123    0.954  
10 Fruits    -0.0374   0.0228      -1.64 1.01e-  1  -0.0820   0.00723    0.963  
# ℹ 12 more rows
# ℹ 2 more variables: Lower_CI <dbl>, Upper_CI <dbl>
…
